{
    "sEmptyTable":     "В таблице отсутствуют данные",
    "sInfo":           "Записи с _START_ до _END_ из _TOTAL_ записей",
    "sInfoEmpty":      "Записи с 0 до 0 из 0 записей",
    "sInfoFiltered":   "(отфильтровано из _MAX_ записей)",
    "sInfoPostFix":    "",
    "sInfoThousands":  ",",
    "sLengthMenu":     "Показать _MENU_ записей",
    "sLoadingRecords": "Загрузка записей...",
    "sProcessing":     "Подождите...",
    "sSearch":         "Поиск:",
    "sZeroRecords":    "Записи отсутствуют.",
    "oPaginate": {
        "sFirst":    "Первая",
        "sLast":     "Последняя",
        "sNext":     "Следующая",
        "sPrevious": "Предыдущая"
    },
    "oAria": {
        "sSortAscending":  ": активировать для сортировки столбца по возрастанию",
        "sSortDescending": ": активировать для сортировки столбца по убыванию"
    }
}